%YAML 1.1
%TAG !u! tag:unity3d.com,2011:
--- !u!1045 &1
EditorBuildSettings:
  m_ObjectHideFlags: 0
  serializedVersion: 2
  m_Scenes:
  - enabled: 0
    path: 
    guid: 00000000000000000000000000000000
  - enabled: 1
    path: Assets/Game/Scenes/Grid2D.unity
    guid: 96e2f3610b4d0734187b54d6980e5954
  - enabled: 0
    path: Assets/Game/Scenes/SpriteManagerTest.unity
    guid: 7ed56331d70680940a554cca95e99fa6
  - enabled: 0
    path: Assets/Game/Scenes/ShooterMain.unity
    guid: 907ff119e00c4394c814adacb6487c46
  - enabled: 0
    path: Assets/FsmGame/Scenes/FsmGameMain.unity
    guid: a45682070de20b2488d0210c5b77dfbc
  m_configObjects: {}
