%YAML 1.1
%TAG !u! tag:unity3d.com,2011:
--- !u!78 &1
TagManager:
  serializedVersion: 2
  tags: []
  layers:
  - Default
  - TransparentFX
  - Ignore Raycast
  - 
  - Water
  - UI
  - 
  - 
  - World
  - 
  - 
  - 
  - 
  - 
  - 
  - 
  - 
  - 
  - 
  - 
  - 
  - 
  - 
  - 
  - 
  - 
  - 
  - 
  - 
  - 
  - 
  - 
  m_SortingLayers:
  - name: Default
    uniqueID: 0
    locked: 0
  - name: ItemsFloorDirt
    uniqueID: 1738486299
    locked: 0
  - name: World
    uniqueID: 4147154513
    locked: 0
  - name: PackedSprite
    uniqueID: 3088167843
    locked: 0
  - name: BehindCharacters
    uniqueID: 490820373
    locked: 0
  - name: Characters
    uniqueID: 1677839789
    locked: 0
  - name: InFrontOfCharacters
    uniqueID: 3933918155
    locked: 0
