{
    "name": "GoapBrainEcs",
    "references": [
        "Common",
        "CommonEcs",
        "Unity.Entities",
        "Unity.Entities.Hybrid",
        "Unity.Transforms",
        "Unity.Burst",
        "Unity.Entities.Properties",
        "Unity.Transforms.Hybrid",
        "Unity.Mathematics",
        "Unity.Collections"
    ],
    "optionalUnityReferences": [],
    "includePlatforms": [],
    "excludePlatforms": [],
    "allowUnsafeCode": true,
    "overrideReferences": false,
    "precompiledReferences": [],
    "autoReferenced": true,
    "defineConstraints": [],
    "versionDefines": []
}